[gd_resource type="Environment" load_steps=2 format=2]

[sub_resource type="ProceduralSky" id=1]
sky_top_color = Color( 0.546021, 0.943279, 0.984375, 1 )
sky_horizon_color = Color( 0.409516, 0.707459, 0.738281, 1 )
ground_bottom_color = Color( 0.409516, 0.707459, 0.738281, 1 )
ground_horizon_color = Color( 0.409516, 0.707459, 0.738281, 1 )
sun_color = Color( 1, 1, 1, 0 )
sun_angle_min = 0.0
sun_angle_max = 0.0
sun_energy = 0.0

[resource]
background_mode = 2
background_sky = SubResource( 1 )
ambient_light_color = Color( 0.546021, 0.943279, 0.984375, 1 )
ambient_light_sky_contribution = 0.5
auto_exposure_enabled = true
auto_exposure_scale = 0.7
auto_exposure_min_luma = 0.5
auto_exposure_speed = 3.0
glow_enabled = true
glow_intensity = 1.0
glow_bicubic_upscale = true
adjustment_enabled = true
adjustment_saturation = 1.2
