[gd_resource type="DynamicFont" load_steps=2 format=2]

[ext_resource path="res://assets/fonts/DoHyeon-Regular.ttf" type="DynamicFontData" id=1]

[resource]
size = 40
extra_spacing_space = 10
font_data = ExtResource( 1 )
