[gd_scene load_steps=6 format=2]

[ext_resource path="res://menus/ControlSetting.gd" type="Script" id=1]
[ext_resource path="res://assets/theme.tres" type="Theme" id=2]
[ext_resource path="res://assets/fonts/Button.tres" type="DynamicFont" id=3]
[ext_resource path="res://assets/fonts/Ubuntu-Light.ttf" type="DynamicFontData" id=4]

[sub_resource type="DynamicFont" id=1]
size = 25
font_data = ExtResource( 4 )

[node name="ControlSetting" type="ColorRect"]
anchor_right = 1.0
anchor_bottom = 0.098
margin_bottom = 0.199997
rect_min_size = Vector2( 0, 59 )
size_flags_horizontal = 3
theme = ExtResource( 2 )
color = Color( 0.168627, 0, 0.239216, 1 )
script = ExtResource( 1 )
__meta__ = {
"_edit_use_anchors_": true
}

[node name="Reassign" type="Button" parent="."]
anchor_left = 0.827
anchor_top = 0.11
anchor_right = 1.0
anchor_bottom = 0.89
margin_left = 0.151978
margin_top = 0.00999975
margin_bottom = -0.0100021
focus_neighbour_left = NodePath(".")
focus_neighbour_right = NodePath(".")
text = "REASSIGN"
__meta__ = {
"_edit_use_anchors_": false
}

[node name="ControlLabel" type="Label" parent="."]
anchor_top = 0.5
anchor_bottom = 0.5
margin_top = -29.5
margin_right = 168.0
margin_bottom = 29.5
custom_fonts/font = ExtResource( 3 )
text = "FORWARD"
valign = 1
__meta__ = {
"_edit_use_anchors_": false
}

[node name="BindingLabel" type="Label" parent="."]
anchor_left = 0.819
anchor_top = 0.5
anchor_right = 0.819313
anchor_bottom = 0.5
margin_left = -22.6561
margin_top = -29.5
margin_right = 0.0239868
margin_bottom = 29.5
grow_horizontal = 0
custom_fonts/font = SubResource( 1 )
text = "W"
align = 2
valign = 1
__meta__ = {
"_edit_use_anchors_": true
}

[connection signal="focus_entered" from="Reassign" to="." method="_on_Reassign_focus_entered"]
[connection signal="pressed" from="Reassign" to="." method="_on_Reassign_pressed"]
