[gd_scene load_steps=3 format=2]

[ext_resource path="res://maps/Room.gd" type="Script" id=1]
[ext_resource path="res://maps/Finish.tscn" type="PackedScene" id=3]

[node name="Race" type="Spatial"]
script = ExtResource( 1 )
title = "Race"
desc = "Get to the end"
time_limit = 60.0

[node name="Track" type="Spatial" parent="."]
transform = Transform( 1, 0, 0, 0, 1, 0, 0, 0, -1, 0, 0, 0 )

[node name="SpawnPositionLow" type="Position3D" parent="."]
transform = Transform( -1, 0, -8.74228e-08, 0, 1, 0, 8.74228e-08, 0, -1, -5, 6, -3 )

[node name="SpawnPositionHigh" type="Position3D" parent="."]
transform = Transform( -1, 0, -8.74228e-08, 0, 1, 0, 8.74228e-08, 0, -1, 5, 6, 19 )

[node name="VoidPosition" type="Position3D" parent="."]
transform = Transform( -4.37114e-08, 0, 1, 0, 1, 0, -1, 0, -4.37114e-08, 0, -40, 0 )

[node name="TeleportTimer" type="Timer" parent="."]
autostart = true

[node name="Finish" parent="." instance=ExtResource( 3 )]
transform = Transform( 1, 0, 0, 0, 1, 0, 0, 0, 1, 0, -24, -250 )

[node name="Camera" type="Camera" parent="."]

[connection signal="timeout" from="TeleportTimer" to="." method="_on_TeleportTimer_timeout"]
