[gd_scene load_steps=6 format=2]

[ext_resource path="res://assets/test.png" type="Texture" id=1]
[ext_resource path="res://maps/Room.gd" type="Script" id=2]

[sub_resource type="SpatialMaterial" id=1]
albedo_texture = ExtResource( 1 )
uv1_scale = Vector3( 30, 30, 0 )

[sub_resource type="CylinderMesh" id=2]
material = SubResource( 1 )
top_radius = 100.0
bottom_radius = 20.0
height = 20.0
radial_segments = 32

[sub_resource type="CylinderShape" id=3]
radius = 100.0
height = 20.0

[node name="WaitingRoom" type="Spatial"]
script = ExtResource( 2 )
lobby = true
sky_color = Color( 0.843137, 0.843137, 0.843137, 1 )
music = 0

[node name="MeshInstance" type="MeshInstance" parent="."]
mesh = SubResource( 2 )
material/0 = null

[node name="StaticBody" type="StaticBody" parent="MeshInstance"]
collision_layer = 3
collision_mask = 0

[node name="CollisionShape" type="CollisionShape" parent="MeshInstance/StaticBody"]
shape = SubResource( 3 )

[node name="TeleportTimer" type="Timer" parent="."]
autostart = true

[node name="VoidPosition" type="Position3D" parent="."]
transform = Transform( 1, 0, 0, 0, 1, 0, 0, 0, 1, 0, -60, 0 )

[node name="SpawnPositionLow" type="Position3D" parent="."]
transform = Transform( 1, 0, 0, 0, 1, 0, 0, 0, 1, -30, 10, -30 )

[node name="SpawnPositionHigh" type="Position3D" parent="."]
transform = Transform( 1, 0, 0, 0, 1, 0, 0, 0, 1, 30, 10, 30 )

[connection signal="timeout" from="TeleportTimer" to="." method="_on_TeleportTimer_timeout"]
